Laboratorio/2°Esperimento/Dati presi/inverter.csv

X,CH1,CH2,Start,Increment,
Sequence,Volt,Volt,-3.00000e-03,5.00000e-06
0,8.00000e-02,-4.00000e-02,
1,-4.00000e-02,4.00000e-02,
2,0.00000e+00,0.00000e+00,
3,-1.20000e-01,8.00000e-02,
4,-8.00000e-02,8.00000e-02,
5,-2.00000e-01,1.60000e-01,
6,-1.60000e-01,1.20000e-01,
7,-2.80000e-01,2.00000e-01,
8,-2.80000e-01,1.60000e-01,
9,-4.00000e-01,2.40000e-01,
10,-3.60000e-01,2.00000e-01,
11,-5.20000e-01,2.80000e-01,
12,-4.40000e-01,2.40000e-01,
13,-5.60000e-01,3.20000e-01,
14,-5.20000e-01,2.80000e-01,
15,-6.80000e-01,3.60000e-01,
16,-6.00000e-01,3.20000e-01,
17,-7.20000e-01,4.00000e-01,
18,-6.80000e-01,3.60000e-01,
19,-8.00000e-01,4.40000e-01,
20,-7.60000e-01,4.00000e-01,
21,-8.80000e-01,4.80000e-01,
22,-8.40000e-01,4.40000e-01,
23,-9.60000e-01,5.20000e-01,
24,-9.60000e-01,5.20000e-01,
25,-1.04000e+00,4.40000e-01,
26,-1.00000e+00,4.80000e-01,
27,-1.12000e+00,5.60000e-01,
28,-1.08000e+00,5.20000e-01,
29,-1.16000e+00,6.00000e-01,
30,-1.12000e+00,5.60000e-01,
31,-1.24000e+00,6.00000e-01,
32,-1.20000e+00,6.40000e-01,
33,-1.28000e+00,5.60000e-01,
34,-1.24000e+00,6.00000e-01,
35,-1.32000e+00,6.80000e-01,
36,-1.28000e+00,6.80000e-01,
37,-1.36000e+00,6.00000e-01,
38,-1.32000e+00,6.40000e-01,
39,-1.40000e+00,7.20000e-01,
40,-1.36000e+00,7.20000e-01,
41,-1.44000e+00,6.40000e-01,
42,-1.40000e+00,7.20000e-01,
43,-1.44000e+00,6.80000e-01,
44,-1.40000e+00,7.20000e-01,
45,-1.48000e+00,6.80000e-01,
46,-1.48000e+00,6.80000e-01,
47,-1.44000e+00,7.60000e-01,
48,-1.48000e+00,7.60000e-01,
49,-1.44000e+00,6.80000e-01,
50,-1.44000e+00,7.60000e-01,
51,-1.48000e+00,6.80000e-01,
52,-1.44000e+00,6.80000e-01,
53,-1.48000e+00,7.60000e-01,
54,-1.48000e+00,7.60000e-01,
55,-1.40000e+00,6.80000e-01,
56,-1.48000e+00,7.20000e-01,
57,-1.40000e+00,6.80000e-01,
58,-1.44000e+00,7.20000e-01,
59,-1.36000e+00,6.80000e-01,
60,-1.40000e+00,7.20000e-01,
61,-1.36000e+00,6.40000e-01,
62,-1.40000e+00,7.20000e-01,
63,-1.32000e+00,6.40000e-01,
64,-1.36000e+00,6.80000e-01,
65,-1.28000e+00,6.00000e-01,
66,-1.32000e+00,6.80000e-01,
67,-1.24000e+00,6.00000e-01,
68,-1.28000e+00,6.40000e-01,
69,-1.16000e+00,5.60000e-01,
70,-1.20000e+00,5.60000e-01,
71,-1.12000e+00,6.40000e-01,
72,-1.16000e+00,6.00000e-01,
73,-1.04000e+00,5.20000e-01,
74,-1.08000e+00,5.60000e-01,
75,-1.00000e+00,4.80000e-01,
76,-1.00000e+00,5.20000e-01,
77,-8.80000e-01,4.40000e-01,
78,-9.20000e-01,5.20000e-01,
79,-8.40000e-01,4.00000e-01,
80,-8.80000e-01,4.80000e-01,
81,-7.60000e-01,4.00000e-01,
82,-8.00000e-01,4.40000e-01,
83,-6.80000e-01,3.60000e-01,
84,-7.20000e-01,4.00000e-01,
85,-6.00000e-01,3.20000e-01,
86,-6.40000e-01,3.60000e-01,
87,-5.20000e-01,2.80000e-01,
88,-5.60000e-01,3.20000e-01,
89,-4.40000e-01,2.40000e-01,
90,-4.80000e-01,2.80000e-01,
91,-3.60000e-01,2.00000e-01,
92,-4.00000e-01,1.60000e-01,
93,-2.80000e-01,2.40000e-01,
94,-2.80000e-01,2.00000e-01,
95,-1.60000e-01,1.20000e-01,
96,-2.00000e-01,1.60000e-01,
97,-4.00000e-02,8.00000e-02,
98,-1.20000e-01,1.20000e-01,
99,4.00000e-02,0.00000e+00,
100,0.00000e+00,4.00000e-02,
101,1.20000e-01,-4.00000e-02,
102,8.00000e-02,0.00000e+00,
103,2.00000e-01,-1.20000e-01,
104,1.60000e-01,-4.00000e-02,
105,2.80000e-01,-1.60000e-01,
106,2.40000e-01,-8.00000e-02,
107,3.60000e-01,-2.00000e-01,
108,3.60000e-01,-1.20000e-01,
109,4.80000e-01,-2.00000e-01,
110,4.40000e-01,-1.60000e-01,
111,5.60000e-01,-2.80000e-01,
112,5.20000e-01,-2.00000e-01,
113,6.40000e-01,-3.20000e-01,
114,6.00000e-01,-2.40000e-01,
115,7.20000e-01,-3.60000e-01,
116,6.80000e-01,-2.80000e-01,
117,8.00000e-01,-4.00000e-01,
118,7.60000e-01,-4.00000e-01,
119,8.80000e-01,-3.20000e-01,
120,8.40000e-01,-3.60000e-01,
121,9.60000e-01,-4.40000e-01,
122,9.20000e-01,-4.00000e-01,
123,1.04000e+00,-4.80000e-01,
124,1.00000e+00,-4.40000e-01,
125,1.08000e+00,-5.20000e-01,
126,1.08000e+00,-5.20000e-01,
127,1.16000e+00,-4.80000e-01,
128,1.12000e+00,-5.60000e-01,
129,1.24000e+00,-4.80000e-01,
130,1.20000e+00,-5.20000e-01,
131,1.28000e+00,-6.00000e-01,
132,1.24000e+00,-6.00000e-01,
133,1.32000e+00,-5.60000e-01,
134,1.28000e+00,-5.60000e-01,
135,1.40000e+00,-6.40000e-01,
136,1.36000e+00,-6.40000e-01,
137,1.44000e+00,-6.00000e-01,
138,1.36000e+00,-6.00000e-01,
139,1.44000e+00,-7.20000e-01,
140,1.40000e+00,-6.80000e-01,
141,1.48000e+00,-7.20000e-01,
142,1.44000e+00,-6.80000e-01,
143,1.52000e+00,-7.20000e-01,
144,1.52000e+00,-6.80000e-01,
145,1.48000e+00,-7.60000e-01,
146,1.48000e+00,-7.20000e-01,
147,1.56000e+00,-7.60000e-01,
148,1.48000e+00,-7.20000e-01,
149,1.56000e+00,-7.60000e-01,
150,1.56000e+00,-7.20000e-01,
151,1.52000e+00,-7.60000e-01,
152,1.56000e+00,-7.20000e-01,
153,1.48000e+00,-7.60000e-01,
154,1.56000e+00,-7.60000e-01,
155,1.48000e+00,-6.80000e-01,
156,1.52000e+00,-7.60000e-01,
157,1.48000e+00,-6.80000e-01,
158,1.52000e+00,-6.80000e-01,
159,1.44000e+00,-7.20000e-01,
160,1.48000e+00,-6.80000e-01,
161,1.40000e+00,-7.20000e-01,
162,1.44000e+00,-7.20000e-01,
163,1.36000e+00,-6.40000e-01,
164,1.44000e+00,-6.80000e-01,
165,1.32000e+00,-6.00000e-01,
166,1.36000e+00,-6.40000e-01,
167,1.28000e+00,-6.00000e-01,
168,1.32000e+00,-6.40000e-01,
169,1.24000e+00,-5.60000e-01,
170,1.28000e+00,-6.00000e-01,
171,1.20000e+00,-5.20000e-01,
172,1.24000e+00,-5.60000e-01,
173,1.12000e+00,-4.80000e-01,
174,1.16000e+00,-5.60000e-01,
175,1.08000e+00,-4.40000e-01,
176,1.08000e+00,-5.20000e-01,
177,9.60000e-01,-4.40000e-01,
178,1.00000e+00,-4.80000e-01,
179,8.80000e-01,-4.00000e-01,
180,9.60000e-01,-4.40000e-01,
181,8.40000e-01,-3.60000e-01,
182,8.80000e-01,-4.00000e-01,
183,7.60000e-01,-3.20000e-01,
184,8.00000e-01,-3.60000e-01,
185,6.80000e-01,-2.80000e-01,
186,7.20000e-01,-3.20000e-01,
187,6.00000e-01,-2.40000e-01,
188,6.40000e-01,-3.20000e-01,
189,5.20000e-01,-2.00000e-01,
190,5.60000e-01,-2.40000e-01,
191,4.40000e-01,-1.60000e-01,
192,4.40000e-01,-2.00000e-01,
193,3.20000e-01,-1.20000e-01,
194,3.60000e-01,-1.60000e-01,
195,2.00000e-01,-8.00000e-02,
196,2.80000e-01,-1.20000e-01,
197,1.20000e-01,-4.00000e-02,
198,1.60000e-01,-8.00000e-02,
199,4.00000e-02,0.00000e+00,
200,8.00000e-02,-4.00000e-02,
201,-4.00000e-02,4.00000e-02,
202,0.00000e+00,0.00000e+00,
203,-1.20000e-01,1.20000e-01,
204,-8.00000e-02,8.00000e-02,
205,-2.00000e-01,1.60000e-01,
206,-1.60000e-01,1.20000e-01,
207,-2.80000e-01,2.00000e-01,
208,-2.80000e-01,1.60000e-01,
209,-4.40000e-01,2.40000e-01,
210,-4.00000e-01,2.00000e-01,
211,-5.20000e-01,2.80000e-01,
212,-4.80000e-01,2.40000e-01,
213,-6.00000e-01,3.20000e-01,
214,-5.60000e-01,2.80000e-01,
215,-6.80000e-01,3.60000e-01,
216,-6.40000e-01,3.20000e-01,
217,-7.60000e-01,4.00000e-01,
218,-7.20000e-01,3.60000e-01,
219,-8.00000e-01,4.40000e-01,
220,-8.00000e-01,4.00000e-01,
221,-8.80000e-01,4.80000e-01,
222,-8.80000e-01,4.40000e-01,
223,-9.60000e-01,5.20000e-01,
224,-9.60000e-01,4.80000e-01,
225,-1.08000e+00,5.20000e-01,
226,-1.04000e+00,4.80000e-01,
227,-1.12000e+00,5.60000e-01,
228,-1.08000e+00,5.20000e-01,
229,-1.20000e+00,6.00000e-01,
230,-1.16000e+00,5.60000e-01,
231,-1.24000e+00,6.40000e-01,
232,-1.20000e+00,6.40000e-01,
233,-1.28000e+00,5.60000e-01,
234,-1.24000e+00,6.00000e-01,
235,-1.32000e+00,6.80000e-01,
236,-1.28000e+00,6.80000e-01,
237,-1.36000e+00,6.00000e-01,
238,-1.32000e+00,6.40000e-01,
239,-1.40000e+00,7.20000e-01,
240,-1.36000e+00,7.20000e-01,
241,-1.44000e+00,6.40000e-01,
242,-1.40000e+00,7.20000e-01,
243,-1.44000e+00,6.80000e-01,
244,-1.40000e+00,6.80000e-01,
245,-1.48000e+00,7.60000e-01,
246,-1.48000e+00,7.60000e-01,
247,-1.44000e+00,6.80000e-01,
248,-1.48000e+00,7.60000e-01,
249,-1.44000e+00,6.80000e-01,
250,-1.48000e+00,7.60000e-01,
251,-1.44000e+00,6.80000e-01,
252,-1.48000e+00,7.60000e-01,
253,-1.44000e+00,6.80000e-01,
254,-1.48000e+00,7.60000e-01,
255,-1.40000e+00,6.80000e-01,
256,-1.40000e+00,7.20000e-01,
257,-1.44000e+00,6.80000e-01,
258,-1.44000e+00,7.20000e-01,
259,-1.36000e+00,6.80000e-01,
260,-1.36000e+00,7.20000e-01,
261,-1.40000e+00,6.40000e-01,
262,-1.40000e+00,7.20000e-01,
263,-1.32000e+00,6.40000e-01,
264,-1.36000e+00,6.80000e-01,
265,-1.28000e+00,6.00000e-01,
266,-1.32000e+00,6.00000e-01,
267,-1.24000e+00,6.80000e-01,
268,-1.28000e+00,6.40000e-01,
269,-1.16000e+00,5.60000e-01,
270,-1.20000e+00,6.00000e-01,
271,-1.12000e+00,5.60000e-01,
272,-1.16000e+00,5.20000e-01,
273,-1.04000e+00,6.00000e-01,
274,-1.08000e+00,5.60000e-01,
275,-1.00000e+00,4.80000e-01,
276,-1.04000e+00,5.20000e-01,
277,-8.80000e-01,4.40000e-01,
278,-9.20000e-01,4.80000e-01,
279,-8.40000e-01,4.00000e-01,
280,-8.40000e-01,4.80000e-01,
281,-7.60000e-01,3.60000e-01,
282,-8.00000e-01,4.40000e-01,
283,-6.80000e-01,3.60000e-01,
284,-7.20000e-01,4.00000e-01,
285,-6.00000e-01,3.20000e-01,
286,-6.40000e-01,3.60000e-01,
287,-5.20000e-01,2.80000e-01,
288,-5.60000e-01,2.40000e-01,
289,-4.40000e-01,3.20000e-01,
290,-4.80000e-01,2.80000e-01,
291,-3.60000e-01,2.00000e-01,
292,-4.00000e-01,1.60000e-01,
293,-2.80000e-01,2.40000e-01,
294,-2.80000e-01,1.60000e-01,
295,-1.20000e-01,1.20000e-01,
296,-2.00000e-01,8.00000e-02,
297,-4.00000e-02,1.60000e-01,
298,-1.20000e-01,8.00000e-02,
299,4.00000e-02,0.00000e+00,
300,0.00000e+00,4.00000e-02,
301,1.20000e-01,-4.00000e-02,
302,8.00000e-02,0.00000e+00,
303,2.00000e-01,-8.00000e-02,
304,1.60000e-01,-4.00000e-02,
305,2.80000e-01,-1.60000e-01,
306,2.40000e-01,-8.00000e-02,
307,3.60000e-01,-1.60000e-01,
308,3.20000e-01,-1.60000e-01,
309,4.80000e-01,-2.40000e-01,
310,4.40000e-01,-1.60000e-01,
311,5.60000e-01,-2.80000e-01,
312,5.20000e-01,-2.00000e-01,
313,6.40000e-01,-3.20000e-01,
314,6.00000e-01,-2.40000e-01,
315,7.20000e-01,-3.60000e-01,
316,6.80000e-01,-3.60000e-01,
317,8.00000e-01,-2.80000e-01,
318,7.60000e-01,-3.20000e-01,
319,8.80000e-01,-4.40000e-01,
320,8.40000e-01,-3.60000e-01,
321,9.60000e-01,-4.40000e-01,
322,9.20000e-01,-4.00000e-01,
323,1.00000e+00,-4.80000e-01,
324,1.00000e+00,-4.40000e-01,
325,1.08000e+00,-5.20000e-01,
326,1.08000e+00,-4.80000e-01,
327,1.16000e+00,-5.60000e-01,
328,1.12000e+00,-5.60000e-01,
329,1.24000e+00,-4.80000e-01,
330,1.20000e+00,-5.20000e-01,
331,1.28000e+00,-6.00000e-01,
332,1.32000e+00,-5.60000e-01,
333,1.24000e+00,-6.40000e-01,
334,1.28000e+00,-6.40000e-01,
335,1.40000e+00,-5.60000e-01,
336,1.32000e+00,-6.00000e-01,
337,1.44000e+00,-6.80000e-01,
338,1.40000e+00,-6.40000e-01,
339,1.48000e+00,-6.80000e-01,
340,1.40000e+00,-6.80000e-01,
341,1.48000e+00,-6.80000e-01,
342,1.44000e+00,-6.80000e-01,
343,1.52000e+00,-7.60000e-01,
344,1.48000e+00,-6.80000e-01,
345,1.52000e+00,-7.60000e-01,
346,1.48000e+00,-7.20000e-01,
347,1.56000e+00,-7.60000e-01,
348,1.56000e+00,-7.20000e-01,
349,1.48000e+00,-7.60000e-01,
350,1.52000e+00,-7.20000e-01,
351,1.56000e+00,-7.60000e-01,
352,1.56000e+00,-7.20000e-01,
353,1.48000e+00,-7.60000e-01,
354,1.48000e+00,-7.20000e-01,
355,1.56000e+00,-7.60000e-01,
356,1.52000e+00,-6.80000e-01,
357,1.44000e+00,-7.60000e-01,
358,1.52000e+00,-6.80000e-01,
359,1.44000e+00,-7.60000e-01,
360,1.48000e+00,-6.80000e-01,
361,1.40000e+00,-6.80000e-01,
362,1.44000e+00,-6.80000e-01,
363,1.36000e+00,-6.40000e-01,
364,1.40000e+00,-6.40000e-01,
365,1.32000e+00,-6.00000e-01,
366,1.36000e+00,-6.40000e-01,
367,1.28000e+00,-5.60000e-01,
368,1.36000e+00,-6.00000e-01,
369,1.24000e+00,-5.60000e-01,
370,1.28000e+00,-6.00000e-01,
371,1.16000e+00,-5.20000e-01,
372,1.24000e+00,-5.60000e-01,
373,1.12000e+00,-4.80000e-01,
374,1.08000e+00,-4.80000e-01,
375,1.16000e+00,-5.20000e-01,
376,1.08000e+00,-5.20000e-01,
377,9.60000e-01,-4.40000e-01,
378,1.00000e+00,-4.80000e-01,
379,8.80000e-01,-4.00000e-01,
380,9.20000e-01,-4.40000e-01,
381,8.40000e-01,-3.60000e-01,
382,8.80000e-01,-4.00000e-01,
383,7.20000e-01,-3.20000e-01,
384,8.00000e-01,-3.60000e-01,
385,6.80000e-01,-2.80000e-01,
386,7.20000e-01,-3.20000e-01,
387,6.00000e-01,-2.40000e-01,
388,6.40000e-01,-2.80000e-01,
389,5.20000e-01,-2.00000e-01,
390,5.60000e-01,-2.40000e-01,
391,4.40000e-01,-1.60000e-01,
392,4.80000e-01,-2.00000e-01,
393,3.20000e-01,-1.20000e-01,
394,3.60000e-01,-1.60000e-01,
395,2.40000e-01,-8.00000e-02,
396,2.40000e-01,-1.20000e-01,
397,1.20000e-01,-4.00000e-02,
398,1.60000e-01,-8.00000e-02,
399,4.00000e-02,0.00000e+00,
400,8.00000e-02,-4.00000e-02,
401,-4.00000e-02,4.00000e-02,
402,0.00000e+00,0.00000e+00,
403,-1.20000e-01,1.20000e-01,
404,-8.00000e-02,8.00000e-02,
405,-2.40000e-01,1.60000e-01,
406,-2.00000e-01,1.20000e-01,
407,-3.20000e-01,2.00000e-01,
408,-3.20000e-01,1.60000e-01,
409,-4.40000e-01,2.40000e-01,
410,-4.00000e-01,2.00000e-01,
411,-5.20000e-01,2.80000e-01,
412,-4.80000e-01,2.40000e-01,
413,-6.00000e-01,3.20000e-01,
414,-5.60000e-01,2.80000e-01,
415,-6.80000e-01,3.60000e-01,
416,-6.40000e-01,3.20000e-01,
417,-7.60000e-01,4.00000e-01,
418,-7.20000e-01,3.60000e-01,
419,-8.40000e-01,4.40000e-01,
420,-8.00000e-01,4.00000e-01,
421,-8.80000e-01,4.80000e-01,
422,-8.40000e-01,4.40000e-01,
423,-9.60000e-01,5.20000e-01,
424,-9.60000e-01,5.20000e-01,
425,-1.08000e+00,4.40000e-01,
426,-1.04000e+00,4.80000e-01,
427,-1.12000e+00,5.60000e-01,
428,-1.08000e+00,5.20000e-01,
429,-1.20000e+00,6.00000e-01,
430,-1.16000e+00,5.60000e-01,
431,-1.24000e+00,6.40000e-01,
432,-1.20000e+00,6.40000e-01,
433,-1.28000e+00,5.60000e-01,
434,-1.32000e+00,6.00000e-01,
435,-1.24000e+00,6.80000e-01,
436,-1.28000e+00,6.80000e-01,
437,-1.36000e+00,6.40000e-01,
438,-1.32000e+00,6.40000e-01,
439,-1.40000e+00,7.20000e-01,
440,-1.36000e+00,7.20000e-01,
441,-1.44000e+00,6.40000e-01,
442,-1.44000e+00,7.20000e-01,
443,-1.40000e+00,6.80000e-01,
444,-1.40000e+00,7.20000e-01,
445,-1.48000e+00,6.80000e-01,
446,-1.48000e+00,6.80000e-01,
447,-1.44000e+00,7.60000e-01,
448,-1.48000e+00,6.80000e-01,
449,-1.44000e+00,7.60000e-01,
450,-1.48000e+00,7.60000e-01,
451,-1.44000e+00,6.80000e-01,
452,-1.48000e+00,7.60000e-01,
453,-1.44000e+00,6.80000e-01,
454,-1.48000e+00,6.80000e-01,
455,-1.40000e+00,7.60000e-01,
456,-1.48000e+00,7.20000e-01,
457,-1.40000e+00,6.80000e-01,
458,-1.44000e+00,7.20000e-01,
459,-1.36000e+00,6.80000e-01,
460,-1.36000e+00,7.20000e-01,
461,-1.40000e+00,6.40000e-01,
462,-1.40000e+00,6.80000e-01,
463,-1.32000e+00,6.40000e-01,
464,-1.36000e+00,6.80000e-01,
465,-1.28000e+00,6.00000e-01,
466,-1.32000e+00,6.40000e-01,
467,-1.20000e+00,6.00000e-01,
468,-1.24000e+00,6.40000e-01,
469,-1.16000e+00,5.60000e-01,
470,-1.20000e+00,6.00000e-01,
471,-1.12000e+00,5.20000e-01,
472,-1.16000e+00,5.20000e-01,
473,-1.04000e+00,6.00000e-01,
474,-1.08000e+00,5.60000e-01,
475,-1.00000e+00,4.80000e-01,
476,-1.00000e+00,5.20000e-01,
477,-8.80000e-01,4.40000e-01,
478,-9.20000e-01,4.80000e-01,
479,-8.40000e-01,4.00000e-01,
480,-8.40000e-01,4.40000e-01,
481,-7.20000e-01,3.60000e-01,
482,-8.00000e-01,4.40000e-01,
483,-6.80000e-01,3.20000e-01,
484,-7.20000e-01,3.60000e-01,
485,-6.00000e-01,2.80000e-01,
486,-6.40000e-01,2.80000e-01,
487,-5.20000e-01,3.60000e-01,
488,-5.60000e-01,3.20000e-01,
489,-4.40000e-01,2.00000e-01,
490,-4.80000e-01,2.40000e-01,
491,-3.60000e-01,1.60000e-01,
492,-3.60000e-01,2.40000e-01,
493,-2.40000e-01,1.20000e-01,
494,-2.40000e-01,2.00000e-01,
495,-1.20000e-01,8.00000e-02,
496,-1.60000e-01,1.60000e-01,
497,-4.00000e-02,4.00000e-02,
498,-8.00000e-02,8.00000e-02,
499,4.00000e-02,-4.00000e-02,
500,0.00000e+00,4.00000e-02,
501,1.20000e-01,-8.00000e-02,
502,8.00000e-02,-4.00000e-02,
503,2.00000e-01,-1.20000e-01,
504,1.60000e-01,-4.00000e-02,
505,3.20000e-01,-1.60000e-01,
506,2.80000e-01,-8.00000e-02,
507,4.00000e-01,-2.00000e-01,
508,3.60000e-01,-1.60000e-01,
509,4.80000e-01,-2.40000e-01,
510,4.80000e-01,-2.00000e-01,
511,6.00000e-01,-2.80000e-01,
512,5.60000e-01,-2.40000e-01,
513,6.80000e-01,-3.20000e-01,
514,6.00000e-01,-2.80000e-01,
515,7.60000e-01,-3.60000e-01,
516,7.20000e-01,-3.20000e-01,
517,8.40000e-01,-4.00000e-01,
518,7.60000e-01,-3.20000e-01,
519,8.80000e-01,-4.40000e-01,
520,8.40000e-01,-4.40000e-01,
521,9.60000e-01,-3.60000e-01,
522,9.20000e-01,-4.00000e-01,
523,1.04000e+00,-4.80000e-01,
524,1.00000e+00,-4.40000e-01,
525,1.08000e+00,-5.20000e-01,
526,1.08000e+00,-4.80000e-01,
527,1.20000e+00,-5.60000e-01,
528,1.16000e+00,-5.60000e-01,
529,1.24000e+00,-5.20000e-01,
530,1.20000e+00,-5.20000e-01,
531,1.28000e+00,-6.00000e-01,
532,1.24000e+00,-5.60000e-01,
533,1.36000e+00,-6.40000e-01,
534,1.32000e+00,-6.40000e-01,
535,1.40000e+00,-5.60000e-01,
536,1.36000e+00,-6.00000e-01,
537,1.44000e+00,-7.20000e-01,
538,1.40000e+00,-6.00000e-01,
539,1.48000e+00,-7.20000e-01,
540,1.40000e+00,-6.80000e-01,
541,1.48000e+00,-7.20000e-01,
542,1.44000e+00,-6.80000e-01,
543,1.52000e+00,-7.60000e-01,
544,1.48000e+00,-6.80000e-01,
545,1.52000e+00,-7.60000e-01,
546,1.48000e+00,-7.20000e-01,
547,1.56000e+00,-7.60000e-01,
548,1.56000e+00,-7.20000e-01,
549,1.48000e+00,-7.60000e-01,
550,1.56000e+00,-7.20000e-01,
551,1.52000e+00,-7.60000e-01,
552,1.56000e+00,-7.20000e-01,
553,1.48000e+00,-7.60000e-01,
554,1.48000e+00,-7.20000e-01,
555,1.56000e+00,-7.60000e-01,
556,1.52000e+00,-7.60000e-01,
557,1.44000e+00,-6.80000e-01,
558,1.44000e+00,-6.80000e-01,
559,1.52000e+00,-7.20000e-01,
560,1.48000e+00,-6.80000e-01,
561,1.40000e+00,-7.20000e-01,
562,1.44000e+00,-6.40000e-01,
563,1.36000e+00,-7.20000e-01,
564,1.40000e+00,-6.00000e-01,
565,1.32000e+00,-6.80000e-01,
566,1.36000e+00,-6.40000e-01,
567,1.28000e+00,-5.60000e-01,
568,1.32000e+00,-6.40000e-01,
569,1.24000e+00,-5.60000e-01,
570,1.28000e+00,-6.00000e-01,
571,1.16000e+00,-5.20000e-01,
572,1.20000e+00,-5.60000e-01,
573,1.12000e+00,-4.80000e-01,
574,1.16000e+00,-5.20000e-01,
575,1.04000e+00,-4.40000e-01,
576,1.08000e+00,-4.40000e-01,
577,9.60000e-01,-5.20000e-01,
578,1.00000e+00,-4.80000e-01,
579,8.80000e-01,-4.00000e-01,
580,9.20000e-01,-4.40000e-01,
581,8.00000e-01,-3.60000e-01,
582,8.40000e-01,-4.00000e-01,
583,7.20000e-01,-3.20000e-01,
584,8.00000e-01,-3.60000e-01,
585,6.40000e-01,-2.80000e-01,
586,6.80000e-01,-3.20000e-01,
587,5.60000e-01,-2.40000e-01,
588,6.40000e-01,-3.20000e-01,
589,4.80000e-01,-2.00000e-01,
590,5.20000e-01,-2.40000e-01,
591,4.00000e-01,-1.60000e-01,
592,4.00000e-01,-2.00000e-01,
593,2.80000e-01,-1.20000e-01,
594,3.20000e-01,-1.60000e-01,
595,2.40000e-01,-8.00000e-02,
596,2.40000e-01,-4.00000e-02,
597,1.20000e-01,-1.20000e-01,
598,1.60000e-01,-8.00000e-02,
599,4.00000e-02,0.00000e+00,
600,8.00000e-02,4.00000e-02,
601,-4.00000e-02,-4.00000e-02,
602,0.00000e+00,0.00000e+00,
603,-1.60000e-01,8.00000e-02,
604,-1.20000e-01,8.00000e-02,
605,-2.40000e-01,1.60000e-01,
606,-2.00000e-01,1.20000e-01,
607,-3.20000e-01,2.00000e-01,
608,-3.20000e-01,1.60000e-01,
609,-4.40000e-01,2.40000e-01,
610,-4.00000e-01,2.00000e-01,
611,-5.20000e-01,2.80000e-01,
612,-4.80000e-01,2.40000e-01,
613,-6.00000e-01,3.20000e-01,
614,-5.60000e-01,2.80000e-01,
615,-6.80000e-01,3.60000e-01,
616,-6.40000e-01,3.20000e-01,
617,-7.60000e-01,4.00000e-01,
618,-7.20000e-01,3.60000e-01,
619,-8.40000e-01,4.40000e-01,
620,-8.00000e-01,4.00000e-01,
621,-9.20000e-01,4.80000e-01,
622,-8.80000e-01,4.40000e-01,
623,-9.60000e-01,5.20000e-01,
624,-9.60000e-01,4.80000e-01,
625,-1.08000e+00,5.60000e-01,
626,-1.04000e+00,4.80000e-01,
627,-1.12000e+00,5.60000e-01,
628,-1.08000e+00,5.20000e-01,
629,-1.20000e+00,6.00000e-01,
630,-1.16000e+00,5.60000e-01,
631,-1.24000e+00,6.40000e-01,
632,-1.20000e+00,6.40000e-01,
633,-1.28000e+00,6.00000e-01,
634,-1.24000e+00,6.00000e-01,
635,-1.32000e+00,6.80000e-01,
636,-1.32000e+00,6.80000e-01,
637,-1.36000e+00,6.40000e-01,
638,-1.32000e+00,6.40000e-01,
639,-1.40000e+00,7.20000e-01,
640,-1.36000e+00,7.20000e-01,
641,-1.44000e+00,6.40000e-01,
642,-1.44000e+00,7.20000e-01,
643,-1.40000e+00,6.80000e-01,
644,-1.40000e+00,6.80000e-01,
645,-1.48000e+00,7.20000e-01,
646,-1.44000e+00,6.80000e-01,
647,-1.48000e+00,7.60000e-01,
648,-1.48000e+00,7.60000e-01,
649,-1.44000e+00,6.80000e-01,
650,-1.48000e+00,7.60000e-01,
651,-1.44000e+00,6.80000e-01,
652,-1.48000e+00,7.60000e-01,
653,-1.44000e+00,6.80000e-01,
654,-1.48000e+00,6.80000e-01,
655,-1.40000e+00,7.60000e-01,
656,-1.40000e+00,7.20000e-01,
657,-1.48000e+00,6.80000e-01,
658,-1.44000e+00,7.20000e-01,
659,-1.36000e+00,6.80000e-01,
660,-1.40000e+00,7.20000e-01,
661,-1.32000e+00,6.40000e-01,
662,-1.32000e+00,6.80000e-01,
663,-1.40000e+00,6.40000e-01,
664,-1.36000e+00,6.80000e-01,
665,-1.28000e+00,6.00000e-01,
666,-1.32000e+00,6.00000e-01,
667,-1.20000e+00,6.40000e-01,
